module technical-test-gokomodo

go 1.17

require (
	github.com/dgrijalva/jwt-go v3.2.0+incompatible
	github.com/fajarardiyanto/flt-go-database v0.1.3
	github.com/fajarardiyanto/flt-go-logger v0.0.8
	github.com/fajarardiyanto/flt-go-router v0.0.3
	github.com/fajarardiyanto/flt-go-utils v0.1.0
	github.com/google/uuid v1.3.0
	github.com/pkg/errors v0.9.1
	github.com/shirou/gopsutil/v3 v3.22.8
	golang.org/x/crypto v0.0.0-20220622213112-05595931fe9d
)

require (
	github.com/cespare/xxhash/v2 v2.1.2 // indirect
	github.com/cpuguy83/go-md2man/v2 v2.0.2 // indirect
	github.com/dgryski/go-rendezvous v0.0.0-20200823014737-9f7001d12a5f // indirect
	github.com/elastic/go-elasticsearch/v7 v7.17.1 // indirect
	github.com/go-ole/go-ole v1.2.6 // indirect
	github.com/go-playground/locales v0.14.0 // indirect
	github.com/go-playground/universal-translator v0.18.0 // indirect
	github.com/go-playground/validator/v10 v10.11.1 // indirect
	github.com/go-redis/redis/v8 v8.11.5 // indirect
	github.com/go-sql-driver/mysql v1.6.0 // indirect
	github.com/golang/snappy v0.0.1 // indirect
	github.com/jackc/chunkreader/v2 v2.0.1 // indirect
	github.com/jackc/pgconn v1.12.1 // indirect
	github.com/jackc/pgio v1.0.0 // indirect
	github.com/jackc/pgpassfile v1.0.0 // indirect
	github.com/jackc/pgproto3/v2 v2.3.0 // indirect
	github.com/jackc/pgservicefile v0.0.0-20200714003250-2b9c44734f2b // indirect
	github.com/jackc/pgtype v1.11.0 // indirect
	github.com/jackc/pgx/v4 v4.16.1 // indirect
	github.com/jinzhu/inflection v1.0.0 // indirect
	github.com/jinzhu/now v1.1.5 // indirect
	github.com/jwalton/gchalk v1.3.0 // indirect
	github.com/jwalton/go-supportscolor v1.1.0 // indirect
	github.com/klauspost/compress v1.13.6 // indirect
	github.com/leodido/go-urn v1.2.1 // indirect
	github.com/lufia/plan9stats v0.0.0-20211012122336-39d0f177ccd0 // indirect
	github.com/montanaflynn/stats v0.0.0-20171201202039-1bf9dbcd8cbe // indirect
	github.com/power-devops/perfstat v0.0.0-20210106213030-5aafc221ea8c // indirect
	github.com/russross/blackfriday/v2 v2.1.0 // indirect
	github.com/tklauser/go-sysconf v0.3.10 // indirect
	github.com/tklauser/numcpus v0.4.0 // indirect
	github.com/urfave/cli/v2 v2.16.3 // indirect
	github.com/xdg-go/pbkdf2 v1.0.0 // indirect
	github.com/xdg-go/scram v1.1.1 // indirect
	github.com/xdg-go/stringprep v1.0.3 // indirect
	github.com/xrash/smetrics v0.0.0-20201216005158-039620a65673 // indirect
	github.com/youmark/pkcs8 v0.0.0-20181117223130-1be2e3e5546d // indirect
	github.com/yusufpapurcu/wmi v1.2.2 // indirect
	go.mongodb.org/mongo-driver v1.10.2 // indirect
	golang.org/x/sync v0.0.0-20210220032951-036812b2e83c // indirect
	golang.org/x/sys v0.0.0-20220520151302-bc2c85ada10a // indirect
	golang.org/x/term v0.0.0-20210927222741-03fcf44c2211 // indirect
	golang.org/x/text v0.3.7 // indirect
	gopkg.in/yaml.v3 v3.0.1 // indirect
	gorm.io/driver/mysql v1.3.5 // indirect
	gorm.io/driver/postgres v1.3.8 // indirect
	gorm.io/gorm v1.23.8 // indirect
)
